cpu.vcd
$date
	Tue Dec 28 16:23:23 2021
$end
$version
	Icarus Verilog
$end
$timescale
	1ps
$end
$scope module test_cpu $end
$var wire 1 ! i_clk $end
$var wire 1 " i_rst_n $end
$var wire 64 # write_data [63:0] $end
$var wire 64 $ write_addr [63:0] $end
$var wire 64 % read_data [63:0] $end
$var wire 64 & read_addr [63:0] $end
$var wire 1 ' i_valid_inst $end
$var wire 1 ( i_valid_addr $end
$var wire 32 ) i_inst [31:0] $end
$var wire 64 * i_addr [63:0] $end
$var wire 1 + d_valid_data $end
$var wire 1 , MemWrite $end
$var wire 1 - MemRead $end
$var wire 1 . Finish $end
$var reg 1 / clk $end
$var reg 1 0 rst_n $end
$var integer 32 1 cc [31:0] $end
$var integer 32 2 error [31:0] $end
$var integer 32 3 i [31:0] $end
$scope module u_cpu $end
$var wire 1 / i_clk $end
$var wire 1 " i_rst_n $end
$var wire 64 4 o_d_r_addr [63:0] $end
$var wire 64 5 o_d_w_addr [63:0] $end
$var wire 1 6 o_finish_w $end
$var wire 1 ( o_i_valid_addr $end
$var wire 64 7 o_i_addr [63:0] $end
$var wire 1 . o_finish $end
$var wire 64 8 o_d_w_data [63:0] $end
$var wire 64 9 o_d_addr [63:0] $end
$var wire 1 , o_d_MemWrite $end
$var wire 1 - o_d_MemRead $end
$var wire 1 ' i_i_valid_inst $end
$var wire 32 : i_i_inst [31:0] $end
$var wire 1 + i_d_valid_data $end
$var wire 64 ; i_d_data [63:0] $end
$var reg 3 < finish_cnt [2:0] $end
$var reg 1 = o_finish_r $end
$scope module EXMEM $end
$var wire 1 / i_clk $end
$var wire 1 " i_rst_n $end
$var wire 64 > i_rs2_data [63:0] $end
$var wire 1 ? i_regWrite $end
$var wire 5 @ i_rd_addr [4:0] $end
$var wire 1 A i_memWrite $end
$var wire 1 B i_memToReg $end
$var wire 1 C i_memRead $end
$var wire 32 D i_inst [31:0] $end
$var wire 64 E i_alu_out [63:0] $end
$var wire 64 F i_alu_data1 [63:0] $end
$var reg 64 G o_alu_data1 [63:0] $end
$var reg 64 H o_alu_out [63:0] $end
$var reg 32 I o_inst [31:0] $end
$var reg 1 - o_memRead $end
$var reg 1 J o_memToReg $end
$var reg 1 , o_memWrite $end
$var reg 5 K o_rd_addr [4:0] $end
$var reg 1 L o_regWrite $end
$var reg 64 M o_rs2_data [63:0] $end
$upscope $end
$scope module IDEX $end
$var wire 1 / i_clk $end
$var wire 1 " i_rst_n $end
$var wire 64 N i_rs2_data [63:0] $end
$var wire 64 O i_rs1_data [63:0] $end
$var wire 1 P i_regWrite $end
$var wire 1 Q i_memWrite $end
$var wire 1 R i_memToReg $end
$var wire 1 S i_memRead $end
$var wire 32 T i_inst [31:0] $end
$var wire 64 U i_imm [63:0] $end
$var wire 1 V i_aluSrc $end
$var wire 2 W i_aluOp [1:0] $end
$var reg 2 X o_aluOp [1:0] $end
$var reg 1 Y o_aluSrc $end
$var reg 64 Z o_imm [63:0] $end
$var reg 32 [ o_inst [31:0] $end
$var reg 1 C o_memRead $end
$var reg 1 B o_memToReg $end
$var reg 1 A o_memWrite $end
$var reg 1 ? o_regWrite $end
$var reg 64 \ o_rs1_data [63:0] $end
$var reg 64 ] o_rs2_data [63:0] $end
$upscope $end
$scope module IFID $end
$var wire 1 / i_clk $end
$var wire 1 " i_rst_n $end
$var wire 1 ^ o_next_inst $end
$var wire 1 ' i_valid_inst $end
$var wire 64 _ i_inst_addr [63:0] $end
$var wire 32 ` i_inst [31:0] $end
$var wire 1 a i_flush $end
$var reg 32 b o_inst [31:0] $end
$var reg 64 c o_inst_addr [63:0] $end
$var reg 1 d o_next_inst_r $end
$var reg 1 e o_next_inst_w $end
$upscope $end
$scope module MEMWB $end
$var wire 64 f i_alu_out [63:0] $end
$var wire 1 / i_clk $end
$var wire 32 g i_inst [31:0] $end
$var wire 1 J i_memToReg $end
$var wire 5 h i_rd_addr [4:0] $end
$var wire 1 L i_regWrite $end
$var wire 1 " i_rst_n $end
$var wire 64 i o_memory_data [63:0] $end
$var wire 64 j i_memory_data [63:0] $end
$var wire 1 + i_d_valid_data $end
$var reg 64 k alu_out_tmp [63:0] $end
$var reg 64 l alu_out_tmp1 [63:0] $end
$var reg 32 m inst_tmp [31:0] $end
$var reg 32 n inst_tmp1 [31:0] $end
$var reg 1 o memToReg_tmp $end
$var reg 1 p memToReg_tmp1 $end
$var reg 64 q o_alu_out [63:0] $end
$var reg 32 r o_inst [31:0] $end
$var reg 1 s o_memToReg $end
$var reg 64 t o_memory_data_r [63:0] $end
$var reg 64 u o_memory_data_w [63:0] $end
$var reg 5 v o_rd_addr [4:0] $end
$var reg 1 w o_regWrite $end
$var reg 5 x rd_addr_tmp [4:0] $end
$var reg 5 y rd_addr_tmp1 [4:0] $end
$var reg 1 z regWrite_tmp $end
$var reg 1 { regWrite_tmp1 $end
$upscope $end
$scope module add_pc_branch $end
$var wire 1 / i_clk $end
$var wire 64 | i_data0 [63:0] $end
$var wire 64 } i_data1 [63:0] $end
$var wire 1 " i_rst_n $end
$var wire 64 ~ o_data [63:0] $end
$upscope $end
$scope module add_pc_next $end
$var wire 1 / i_clk $end
$var wire 64 !" i_data1 [63:0] $end
$var wire 1 " i_rst_n $end
$var wire 64 "" o_data [63:0] $end
$var wire 64 #" i_data0 [63:0] $end
$upscope $end
$scope module alu $end
$var wire 1 $" o_zero $end
$var wire 64 %" i_data1 [63:0] $end
$var wire 64 &" i_data0 [63:0] $end
$var wire 3 '" i_alu_control [2:0] $end
$var reg 64 (" o_data [63:0] $end
$upscope $end
$scope module alu_control $end
$var wire 2 )" i_aluOp [1:0] $end
$var wire 3 *" i_func3 [2:0] $end
$var wire 7 +" i_func7 [6:0] $end
$var reg 3 ," o_alu_control [2:0] $end
$upscope $end
$scope module alu_data1_choose $end
$var wire 64 -" i_data1 [63:0] $end
$var wire 1 Y i_select $end
$var wire 64 ." o_data [63:0] $end
$var wire 64 /" i_data0 [63:0] $end
$upscope $end
$scope module beq_detector $end
$var wire 1 0" i_ne $end
$var wire 1 a o_branch $end
$var wire 64 1" i_rs2_data [63:0] $end
$var wire 64 2" i_rs1_data [63:0] $end
$var wire 1 3" i_branch $end
$upscope $end
$scope module control_unit $end
$var wire 7 4" i_opcode [6:0] $end
$var wire 1 5" i_nop $end
$var reg 2 6" o_aluOp [1:0] $end
$var reg 1 V o_aluSrc $end
$var reg 1 3" o_branch $end
$var reg 1 . o_finish $end
$var reg 1 S o_memRead $end
$var reg 1 R o_memToReg $end
$var reg 1 Q o_memWrite $end
$var reg 1 P o_regWrite $end
$upscope $end
$scope module forwardA $end
$var wire 64 7" i_data0 [63:0] $end
$var wire 64 8" i_data2 [63:0] $end
$var wire 64 9" i_data3 [63:0] $end
$var wire 2 :" i_select [1:0] $end
$var wire 64 ;" i_data1 [63:0] $end
$var reg 64 <" o_data [63:0] $end
$upscope $end
$scope module forwardB $end
$var wire 64 =" i_data0 [63:0] $end
$var wire 64 >" i_data2 [63:0] $end
$var wire 64 ?" i_data3 [63:0] $end
$var wire 2 @" i_select [1:0] $end
$var wire 64 A" i_data1 [63:0] $end
$var reg 64 B" o_data [63:0] $end
$upscope $end
$scope module forwarding_unit $end
$var wire 5 C" i_EXMEM_rd_addr [4:0] $end
$var wire 1 L i_EXMEM_regWrite $end
$var wire 5 D" i_IDEX_rs1_addr [4:0] $end
$var wire 5 E" i_IDEX_rs2_addr [4:0] $end
$var wire 5 F" i_MEMWB_rd_addr [4:0] $end
$var wire 1 w i_MEMWB_regWrite $end
$var reg 2 G" o_forwardA [1:0] $end
$var reg 2 H" o_forwardB [1:0] $end
$upscope $end
$scope module hazard_detector $end
$var wire 1 C i_memRead $end
$var wire 5 I" i_rd_addr [4:0] $end
$var wire 5 J" i_rs1_addr [4:0] $end
$var wire 5 K" i_rs2_addr [4:0] $end
$var wire 1 L" o_hazard $end
$var wire 1 5" o_nop $end
$var wire 1 M" o_stall $end
$upscope $end
$scope module imm_gen $end
$var wire 32 N" i_inst [31:0] $end
$var reg 64 O" o_imm [63:0] $end
$upscope $end
$scope module pc $end
$var wire 1 ^ i_change $end
$var wire 1 / i_clk $end
$var wire 1 L" i_no_hazard $end
$var wire 1 " i_rst_n $end
$var wire 64 P" i_inst_addr [63:0] $end
$var reg 3 Q" clk_cnt [2:0] $end
$var reg 64 R" o_inst_addr [63:0] $end
$var reg 1 ( o_valid_inst_addr $end
$upscope $end
$scope module pc_choose $end
$var wire 64 S" i_data0 [63:0] $end
$var wire 64 T" i_data1 [63:0] $end
$var wire 1 a i_select $end
$var wire 64 U" o_data [63:0] $end
$upscope $end
$scope module register $end
$var wire 1 / i_clk $end
$var wire 1 s i_memToReg $end
$var wire 5 V" i_rd_addr [4:0] $end
$var wire 1 w i_regWrite $end
$var wire 5 W" i_rs1_addr [4:0] $end
$var wire 5 X" i_rs2_addr [4:0] $end
$var wire 1 " i_rst_n $end
$var wire 64 Y" o_rs2_data [63:0] $end
$var wire 64 Z" o_rs1_data [63:0] $end
$var wire 64 [" i_rd_data [63:0] $end
$var reg 1 \" memToReg_tmp $end
$var reg 5 ]" rd_addr_tmp [4:0] $end
$var integer 32 ^" cnt [31:0] $end
$var integer 32 _" i [31:0] $end
$upscope $end
$scope module write_reg $end
$var wire 64 `" i_data0 [63:0] $end
$var wire 64 a" i_data1 [63:0] $end
$var wire 1 s i_select $end
$var wire 64 b" o_data [63:0] $end
$upscope $end
$upscope $end
$scope module u_data_mem $end
$var wire 1 - i_MemRead $end
$var wire 1 , i_MemWrite $end
$var wire 1 ! i_clk $end
$var wire 64 c" i_data [63:0] $end
$var wire 64 d" i_r_addr [63:0] $end
$var wire 1 " i_rst_n $end
$var wire 64 e" i_w_addr [63:0] $end
$var wire 64 f" o_data [63:0] $end
$var wire 1 + o_valid $end
$var reg 64 g" o_data_r [63:0] $end
$var reg 64 h" o_data_w [63:0] $end
$var reg 1 i" o_valid_r $end
$var reg 1 j" o_valid_w $end
$var reg 1 k" temp1_MemRead_r $end
$var reg 1 l" temp1_MemRead_w $end
$var reg 64 m" temp1_r_addr_r [63:0] $end
$var reg 64 n" temp1_r_addr_w [63:0] $end
$var integer 32 o" i [31:0] $end
$upscope $end
$scope module u_inst_mem $end
$var wire 64 p" i_addr [63:0] $end
$var wire 1 ! i_clk $end
$var wire 1 " i_rst_n $end
$var wire 1 ( i_valid $end
$var wire 32 q" o_inst [31:0] $end
$var wire 1 ' o_valid $end
$var reg 32 r" o_inst_r [31:0] $end
$var reg 32 s" o_inst_w [31:0] $end
$var reg 1 t" o_valid_r $end
$var reg 1 u" o_valid_w $end
$var reg 32 v" temp1_r [31:0] $end
$var reg 1 w" temp1_valid_r $end
$var reg 1 x" temp1_valid_w $end
$var reg 32 y" temp1_w [31:0] $end
$var reg 32 z" temp2_r [31:0] $end
$var reg 1 {" temp2_valid_r $end
$var reg 1 |" temp2_valid_w $end
$var reg 32 }" temp2_w [31:0] $end
$upscope $end
$upscope $end
$enddefinitions $end
#0
$dumpvars
bx }"
x|"
x{"
bx z"
b0 y"
0x"
xw"
bx v"
xu"
xt"
bx s"
bx r"
bx q"
bx p"
b10000000000 o"
bx n"
bx m"
xl"
xk"
xj"
xi"
bx h"
bx g"
bx f"
bx e"
bx d"
b0 c"
bx b"
bx a"
bx `"
bx _"
b0 ^"
bx ]"
x\"
bx ["
bx Z"
bx Y"
bx X"
bx W"
bx V"
bx U"
bx T"
bx S"
bx R"
bx Q"
bx P"
bx O"
bx N"
xM"
xL"
bx K"
bx J"
bx I"
bx H"
bx G"
bx F"
bx E"
bx D"
bx C"
b0 B"
bx A"
bx @"
b0 ?"
bx >"
bx ="
b0 <"
bx ;"
bx :"
b0 9"
bx 8"
bx 7"
bx 6"
x5"
bx 4"
x3"
bx 2"
bx 1"
x0"
b0 /"
bx ."
bx -"
bx ,"
bx +"
bx *"
bx )"
bx ("
bx '"
b0 &"
bx %"
x$"
bx #"
bx ""
b100 !"
bx ~
bx0 }
bx |
x{
xz
bx y
bx x
xw
bx v
bx u
bx t
xs
bx r
bx q
xp
xo
bx n
bx m
bx l
bx k
bx j
bx i
bx h
bx g
bx f
xe
xd
bx c
bx b
xa
bx `
bx _
x^
bx ]
bx \
bx [
bx Z
xY
bx X
bx W
xV
bx U
bx T
xS
xR
xQ
xP
bx O
bx N
b0 M
xL
bx K
xJ
bx I
bx H
bx G
bx F
bx E
bx D
xC
xB
xA
bx @
x?
b0 >
0=
bx <
bx ;
bx :
bx 9
b0 8
bx 7
z6
bx 5
bx 4
bx 3
b0 2
b0 1
10
1/
x.
x-
x,
x+
bx *
bx )
0(
x'
bx &
bx %
bx $
b0 #
1"
1!
$end
#2500
1$"
b0 E
b0 ("
b100 P"
b100 U"
0a
b0 ~
b0 T"
b0 }
0.
0P
0V
0Q
b0 W
b0 6"
0R
0S
03"
b0 '"
b0 ,"
b0 U
b0 O"
1L"
b0 O
b0 2"
b0 Z"
b0 N
b0 1"
b0 Y"
b0 ;"
b0 A"
b0 ["
b0 b"
b0 @"
b0 H"
b0 :"
b0 G"
0l"
b0 n"
b0 I"
b0 *"
b0 +"
b0 @
b0 D"
b0 E"
b0 F
b0 %"
b0 ."
05"
0M"
b0 J"
b0 K"
b0 4"
b0 W"
b0 X"
00"
b1000010000100011110110011 y"
1x"
b0 h"
0j"
b0 u
b0 s"
0u"
b0 }"
0|"
0e
b0 <
b0 m
b0 x
b0 k
0z
0o
b0 r
b0 v
b0 F"
b0 V"
b0 i
b0 t
b0 a"
b0 q
b0 `"
0w
0s
b0 I
b0 g
b0 G
b0 K
b0 h
b0 C"
b0 $
b0 5
b0 e"
b0 &
b0 4
b0 d"
b0 9
b0 H
b0 f
b0 8"
b0 >"
0L
0,
0J
0-
b0 D
b0 [
b0 Z
b0 -"
b0 ]
b0 ="
b0 \
b0 7"
0?
0Y
0A
b0 X
b0 )"
0B
0C
0^
0d
b0 c
b0 |
b0 T
b0 b
b0 N"
b0 Q"
1(
b100 ""
b100 S"
b0 *
b0 7
b0 _
b0 #"
b0 R"
b0 p"
b0 m"
0k"
b0 %
b0 ;
b0 j
b0 f"
b0 g"
0+
0i"
0{"
0w"
b0 z"
b0 v"
b0 )
b0 :
b0 `
b0 q"
b0 r"
0'
0t"
b100000 _"
b10000000000 o"
0"
00
#5000
b1 1
0!
0/
#10000
b0 ]"
0\"
b100000 _"
b10000000000 o"
1!
1/
#15000
b10 1
0!
0/
#20000
b100000 _"
b10000000000 o"
1!
1/
#25000
b11 1
0!
0/
#30000
b100000 _"
b10000000000 o"
1!
1/
#35000
b100 1
0!
0/
#40000
b100000 _"
b10000000000 o"
1!
1/
#45000
b101 1
0!
0/
#50000
bx O
bx 2"
bx Z"
bx N
bx 1"
bx Y"
b0 y"
0x"
bx ;"
bx A"
bx ["
bx b"
b1000010000100011110110011 }"
1|"
0(
bx r
bx v
bx F"
bx V"
bx q
bx `"
xw
xs
b0 n
b0 y
b0 l
0{
0p
1w"
b1000010000100011110110011 v"
b1 Q"
b10000000000 o"
1!
1/
1"
10
#55000
b110 1
0!
0/
#60000
x$"
bx E
bx ("
b0 N
b0 1"
b0 Y"
b0 O
b0 2"
b0 Z"
bx F
bx %"
bx ."
b0 ;"
b0 A"
b0 ["
b0 b"
bx >
bx /"
bx B"
bx &"
bx <"
b1000010000100011110110011 s"
1u"
b0 }"
0|"
b0 r
b0 v
b0 F"
b0 V"
b0 q
b0 `"
0w
0s
bx ]
bx ="
bx \
bx 7"
bx ]"
x\"
1{"
0w"
b1000010000100011110110011 z"
b0 v"
b10 Q"
b10000000000 o"
1!
1/
#65000
b111 1
0!
0/
#70000
1$"
b0 E
b0 ("
b0 F
b0 %"
b0 ."
b0 &"
b0 <"
b0 >
b0 /"
b0 B"
bx n"
b0 s"
0u"
1e
b0 ]"
0\"
b0 ]
b0 ="
b0 \
b0 7"
bx G
bx #
bx 8
bx M
bx c"
bx $
bx 5
bx e"
bx &
bx 4
bx d"
bx 9
bx H
bx f
bx 8"
bx >"
0{"
b0 z"
b1000010000100011110110011 )
b1000010000100011110110011 :
b1000010000100011110110011 `
b1000010000100011110110011 q"
b1000010000100011110110011 r"
1'
1t"
b11 Q"
b10000000000 o"
1!
1/
#75000
b1000 1
0!
0/
#80000
1P
b11 W
b11 6"
b0 n"
b10000 J"
b10000 K"
b110011 4"
b10000 W"
b10000 X"
bx k
b0 G
b0 #
b0 8
b0 M
b0 c"
b0 $
b0 5
b0 e"
b0 &
b0 4
b0 d"
b0 9
b0 H
b0 f
b0 8"
b0 >"
1^
1d
b1000010000100011110110011 T
b1000010000100011110110011 b
b1000010000100011110110011 N"
bx m"
b0 )
b0 :
b0 `
b0 q"
b0 r"
0'
0t"
b100 Q"
b10000000000 o"
1!
1/
#85000
b1001 1
0!
0/
#90000
0P
b0 W
b0 6"
b100 '"
b100 ,"
b1000 P"
b1000 U"
b111101111100100000110011 y"
1x"
b0 J"
b0 K"
b0 4"
b0 W"
b0 X"
0e
b1111 I"
b100 *"
b1111 @
b10000 D"
b10000 E"
1(
b1000 ""
b1000 S"
b100 *
b100 7
b100 _
b100 #"
b100 R"
b100 p"
b0 T
b0 b
b0 N"
b1000010000100011110110011 D
b1000010000100011110110011 [
1?
b11 X
b11 )"
bx l
b0 k
b0 m"
b0 Q"
b10000000000 o"
1!
1/
#95000
b1010 1
0!
0/
#100000
b0 '"
b0 ,"
bx ;"
bx A"
bx ["
bx b"
b0 I"
b0 *"
b0 @
b0 D"
b0 E"
b0 y"
0x"
b111101111100100000110011 }"
1|"
bx q
bx `"
b0 l
b1000010000100011110110011 I
b1000010000100011110110011 g
b1111 K
b1111 h
b1111 C"
1L
b0 D
b0 [
0?
b0 X
b0 )"
0^
0d
b100 ~
b100 T"
b100 c
b100 |
0(
1w"
b111101111100100000110011 v"
b1 Q"
b10000000000 o"
1!
1/
#105000
b1011 1
0!
0/
#110000
b0 ;"
b0 A"
b0 ["
b0 b"
b111101111100100000110011 s"
1u"
b0 }"
0|"
b0 I
b0 g
b0 K
b0 h
b0 C"
0L
b0 q
b0 `"
b1000010000100011110110011 m
b1111 x
1z
1{"
0w"
b111101111100100000110011 z"
b0 v"
b10 Q"
b10000000000 o"
1!
1/
#115000
b1100 1
0!
0/
#120000
b0 s"
0u"
1e
b1000010000100011110110011 n
b1111 y
1{
b0 m
b0 x
0z
0{"
b0 z"
b111101111100100000110011 )
b111101111100100000110011 :
b111101111100100000110011 `
b111101111100100000110011 q"
b111101111100100000110011 r"
1'
1t"
b11 Q"
b10000000000 o"
1!
1/
#125000
b1101 1
0!
0/
#130000
1P
b11 W
b11 6"
b1111 J"
b1111 K"
b110011 4"
b1111 W"
b1111 X"
1^
1d
b111101111100100000110011 T
b111101111100100000110011 b
b111101111100100000110011 N"
b1000010000100011110110011 r
b1111 v
b1111 F"
b1111 V"
1w
b0 n
b0 y
0{
b0 )
b0 :
b0 `
b0 q"
b0 r"
0'
0t"
b100 Q"
b10000000000 o"
1!
1/
#135000
b1110 1
0!
0/
#140000
b100 '"
b100 ,"
0P
b0 W
b0 6"
b10000 I"
b100 *"
b10000 @
b1111 D"
b1111 E"
b0 J"
b0 K"
b0 4"
b0 W"
b0 X"
0e
b1100 P"
b1100 U"
b101111000011100010011 y"
1x"
b0 r
b0 v
b0 F"
b0 V"
0w
b111101111100100000110011 D
b111101111100100000110011 [
1?
b11 X
b11 )"
b1111 ]"
b0 T
b0 b
b0 N"
1(
b1100 ""
b1100 S"
b1000 *
b1000 7
b1000 _
b1000 #"
b1000 R"
b1000 p"
b0 Q"
b10000000000 o"
1!
1/
#145000
b1111 1
0!
0/
#150000
b0 '"
b0 ,"
b0 y"
0x"
b0 I"
b0 *"
b0 @
b0 D"
b0 E"
b101111000011100010011 }"
1|"
0(
0^
0d
b1000 ~
b1000 T"
b1000 c
b1000 |
b0 ]"
b0 D
b0 [
0?
b0 X
b0 )"
b111101111100100000110011 I
b111101111100100000110011 g
b10000 K
b10000 h
b10000 C"
1L
1w"
b101111000011100010011 v"
b1 Q"
b10000000000 o"
1!
1/
#155000
b10000 1
0!
0/
#160000
b101111000011100010011 s"
1u"
b0 }"
0|"
b111101111100100000110011 m
b10000 x
1z
b0 I
b0 g
b0 K
b0 h
b0 C"
0L
1{"
0w"
b101111000011100010011 z"
b0 v"
b10 Q"
b10000000000 o"
1!
1/
#165000
b10001 1
0!
0/
#170000
b0 s"
0u"
1e
b111101111100100000110011 n
b10000 y
1{
b0 m
b0 x
0z
0{"
b0 z"
b101111000011100010011 )
b101111000011100010011 :
b101111000011100010011 `
b101111000011100010011 q"
b101111000011100010011 r"
1'
1t"
b11 Q"
b10000000000 o"
1!
1/
#175000
b10010 1
0!
0/
#180000
b1010 ~
b1010 T"
b10 }
1P
1V
b1 U
b1 O"
b1111 J"
b1 K"
b10011 4"
b1111 W"
b1 X"
b111101111100100000110011 r
b10000 v
b10000 F"
b10000 V"
1w
b0 n
b0 y
0{
1^
1d
b101111000011100010011 T
b101111000011100010011 b
b101111000011100010011 N"
b0 )
b0 :
b0 `
b0 q"
b0 r"
0'
0t"
b100 Q"
b10000000000 o"
1!
1/
#185000
b10011 1
0!
0/
#190000
0$"
b1000 ~
b1000 T"
b0 }
0P
0V
b1 E
b1 ("
b0 U
b0 O"
b10000 P"
b10000 U"
b10001010000010110010011 y"
1x"
b0 J"
b0 K"
b0 4"
b0 W"
b0 X"
0e
b1110 I"
b1110 @
b1111 D"
b1 E"
b1 F
b1 %"
b1 ."
1(
b10000 ""
b10000 S"
b1100 *
b1100 7
b1100 _
b1100 #"
b1100 R"
b1100 p"
b0 T
b0 b
b0 N"
b10000 ]"
b101111000011100010011 D
b101111000011100010011 [
b1 Z
b1 -"
1?
1Y
b0 r
b0 v
b0 F"
b0 V"
0w
b0 Q"
b10000000000 o"
1!
1/
#195000
b10100 1
0!
0/
#200000
1$"
b0 E
b0 ("
b1 n"
b0 I"
b0 @
b0 D"
b0 E"
b0 F
b0 %"
b0 ."
b0 y"
0x"
b10001010000010110010011 }"
1|"
b101111000011100010011 I
b101111000011100010011 g
b1 G
b1110 K
b1110 h
b1110 C"
b1 $
b1 5
b1 e"
b1 &
b1 4
b1 d"
b1 9
b1 H
b1 f
b1 8"
b1 >"
1L
b0 D
b0 [
b0 Z
b0 -"
0?
0Y
b0 ]"
0^
0d
b1100 ~
b1100 T"
b1100 c
b1100 |
0(
1w"
b10001010000010110010011 v"
b1 Q"
b10000000000 o"
1!
1/
#205000
b10101 1
0!
0/
#210000
b0 n"
b10001010000010110010011 s"
1u"
b0 }"
0|"
b0 I
b0 g
b0 G
b0 K
b0 h
b0 C"
b0 $
b0 5
b0 e"
b0 &
b0 4
b0 d"
b0 9
b0 H
b0 f
b0 8"
b0 >"
0L
b101111000011100010011 m
b1110 x
b1 k
1z
1{"
0w"
b10001010000010110010011 z"
b0 v"
b1 m"
b10 Q"
b10000000000 o"
1!
1/
#215000
b10110 1
0!
0/
#220000
b0 s"
0u"
1e
b101111000011100010011 n
b1110 y
b1 l
1{
b0 m
b0 x
b0 k
0z
b0 m"
0{"
b0 z"
b10001010000010110010011 )
b10001010000010110010011 :
b10001010000010110010011 `
b10001010000010110010011 q"
b10001010000010110010011 r"
1'
1t"
b11 Q"
b10000000000 o"
1!
1/
#225000
b10111 1
0!
0/
#230000
b10100 ~
b10100 T"
b1000 }
1P
1V
b100 U
b100 O"
b1010 J"
b100 K"
b10011 4"
b1010 W"
b100 X"
b1 ;"
b1 A"
b1 ["
b1 b"
1^
1d
b10001010000010110010011 T
b10001010000010110010011 b
b10001010000010110010011 N"
b101111000011100010011 r
b1110 v
b1110 F"
b1110 V"
b1 q
b1 `"
1w
b0 n
b0 y
b0 l
0{
b0 )
b0 :
b0 `
b0 q"
b0 r"
0'
0t"
b100 Q"
b10000000000 o"
1!
1/
#235000
b11000 1
0!
0/
#240000
0$"
b1100 ~
b1100 T"
b0 }
b100 E
b100 ("
0P
0V
b0 U
b0 O"
b0 ;"
b0 A"
b0 ["
b0 b"
b1011 I"
b1011 @
b1010 D"
b100 E"
b100 F
b100 %"
b100 ."
b0 J"
b0 K"
b0 4"
b0 W"
b0 X"
0e
b10100 P"
b10100 U"
b1000011001111000011000010011 y"
1x"
b0 r
b0 v
b0 F"
b0 V"
b0 q
b0 `"
0w
b10001010000010110010011 D
b10001010000010110010011 [
b100 Z
b100 -"
1?
1Y
b1110 ]"
b0 T
b0 b
b0 N"
1(
b10100 ""
b10100 S"
b10000 *
b10000 7
b10000 _
b10000 #"
b10000 R"
b10000 p"
b0 Q"
b10000000000 o"
1!
1/
#245000
b11001 1
0!
0/
#250000
1$"
b0 E
b0 ("
b0 y"
0x"
b0 I"
b0 @
b0 D"
b0 E"
b0 F
b0 %"
b0 ."
b100 n"
b1000011001111000011000010011 }"
1|"
0(
0^
0d
b10000 ~
b10000 T"
b10000 c
b10000 |
b0 ]"
b0 D
b0 [
b0 Z
b0 -"
0?
0Y
b10001010000010110010011 I
b10001010000010110010011 g
b100 G
b1011 K
b1011 h
b1011 C"
b100 $
b100 5
b100 e"
b100 &
b100 4
b100 d"
b100 9
b100 H
b100 f
b100 8"
b100 >"
1L
1w"
b1000011001111000011000010011 v"
b1 Q"
b10000000000 o"
1!
1/
#255000
b11010 1
0!
0/
#260000
b0 n"
b1000011001111000011000010011 s"
1u"
b0 }"
0|"
b10001010000010110010011 m
b1011 x
b100 k
1z
b0 I
b0 g
b0 G
b0 K
b0 h
b0 C"
b0 $
b0 5
b0 e"
b0 &
b0 4
b0 d"
b0 9
b0 H
b0 f
b0 8"
b0 >"
0L
b100 m"
1{"
0w"
b1000011001111000011000010011 z"
b0 v"
b10 Q"
b10000000000 o"
1!
1/
#265000
b11011 1
0!
0/
#270000
b0 s"
0u"
1e
b10001010000010110010011 n
b1011 y
b100 l
1{
b0 m
b0 x
b0 k
0z
0{"
b0 z"
b1000011001111000011000010011 )
b1000011001111000011000010011 :
b1000011001111000011000010011 `
b1000011001111000011000010011 q"
b1000011001111000011000010011 r"
1'
1t"
b0 m"
b11 Q"
b10000000000 o"
1!
1/
#275000
b11100 1
0!
0/
#280000
b100011100 ~
b100011100 T"
b100001100 }
1P
1V
b10000110 U
b10000110 O"
b100 ;"
b100 A"
b100 ["
b100 b"
b1111 J"
b110 K"
b10011 4"
b1111 W"
b110 X"
b10001010000010110010011 r
b1011 v
b1011 F"
b1011 V"
b100 q
b100 `"
1w
b0 n
b0 y
b0 l
0{
1^
1d
b1000011001111000011000010011 T
b1000011001111000011000010011 b
b1000011001111000011000010011 N"
b0 )
b0 :
b0 `
b0 q"
b0 r"
0'
0t"
b100 Q"
b10000000000 o"
1!
1/
#285000
b11101 1
0!
0/
#290000
0$"
b10000 ~
b10000 T"
b0 }
0P
0V
b10000110 E
b10000110 ("
b0 U
b0 O"
b11000 P"
b11000 U"
b1011000101111000011010010011 y"
1x"
b0 J"
b0 K"
b0 4"
b0 W"
b0 X"
0e
b1100 I"
b100 +"
b1100 @
b1111 D"
b110 E"
b10000110 F
b10000110 %"
b10000110 ."
b0 ;"
b0 A"
b0 ["
b0 b"
1(
b11000 ""
b11000 S"
b10100 *
b10100 7
b10100 _
b10100 #"
b10100 R"
b10100 p"
b0 T
b0 b
b0 N"
b1011 ]"
b1000011001111000011000010011 D
b1000011001111000011000010011 [
b10000110 Z
b10000110 -"
1?
1Y
b0 r
b0 v
b0 F"
b0 V"
b0 q
b0 `"
0w
b0 Q"
b10000000000 o"
1!
1/
#295000
b11110 1
0!
0/
#300000
1$"
b0 E
b0 ("
b10000110 n"
b0 I"
b0 +"
b0 @
b0 D"
b0 E"
b0 F
b0 %"
b0 ."
b0 y"
0x"
b1011000101111000011010010011 }"
1|"
b1000011001111000011000010011 I
b1000011001111000011000010011 g
b10000110 G
b1100 K
b1100 h
b1100 C"
b10000110 $
b10000110 5
b10000110 e"
b10000110 &
b10000110 4
b10000110 d"
b10000110 9
b10000110 H
b10000110 f
b10000110 8"
b10000110 >"
1L
b0 D
b0 [
b0 Z
b0 -"
0?
0Y
b0 ]"
0^
0d
b10100 ~
b10100 T"
b10100 c
b10100 |
0(
1w"
b1011000101111000011010010011 v"
b1 Q"
b10000000000 o"
1!
1/
#305000
b11111 1
0!
0/
#310000
b0 n"
b1011000101111000011010010011 s"
1u"
b0 }"
0|"
b0 I
b0 g
b0 G
b0 K
b0 h
b0 C"
b0 $
b0 5
b0 e"
b0 &
b0 4
b0 d"
b0 9
b0 H
b0 f
b0 8"
b0 >"
0L
b1000011001111000011000010011 m
b1100 x
b10000110 k
1z
1{"
0w"
b1011000101111000011010010011 z"
b0 v"
b10000110 m"
b10 Q"
b10000000000 o"
1!
1/
#315000
b100000 1
0!
0/
#320000
b0 s"
0u"
1e
b1000011001111000011000010011 n
b1100 y
b10000110 l
1{
b0 m
b0 x
b0 k
0z
b0 m"
0{"
b0 z"
b1011000101111000011010010011 )
b1011000101111000011010010011 :
b1011000101111000011010010011 `
b1011000101111000011010010011 q"
b1011000101111000011010010011 r"
1'
1t"
b11 Q"
b10000000000 o"
1!
1/
#325000
b100001 1
0!
0/
#330000
b101110110 ~
b101110110 T"
b101100010 }
1P
1V
b10110001 U
b10110001 O"
b1111 J"
b10001 K"
b10011 4"
b1111 W"
b10001 X"
b10000110 ;"
b10000110 A"
b10000110 ["
b10000110 b"
1^
1d
b1011000101111000011010010011 T
b1011000101111000011010010011 b
b1011000101111000011010010011 N"
b1000011001111000011000010011 r
b1100 v
b1100 F"
b1100 V"
b10000110 q
b10000110 `"
1w
b0 n
b0 y
b0 l
0{
b0 )
b0 :
b0 `
b0 q"
b0 r"
0'
0t"
b100 Q"
b10000000000 o"
1!
1/
#335000
b100010 1
0!
0/
